{
  "checks": {
    "apache_check": {
      "command": "/etc/sensu/plugins/check-apache.rb",
      "interval": 60,
      "subscribers": [ "apache" ],
      "handlers" : ["slack", "mailer","debug","sms"],
        "occurrences":1,
        "refresh":60
    }
  }
}
