{
    "handlers": {
        "mailer": {
            "type": "pipe",
            "command": "/opt/sensu/embedded/lib/ruby/gems/2.2.0/gems/sensu-plugins-mailer-0.1.2/bin/handler-mailer.rb",
            "severites": ["critical", "unknown","CRITICAL"]
        }
    },
    "mailer": {
    "mail_from": "engg@vymo.in",
    "mail_to": "engg@vymo.in",
    "smtp_address": "aspmx.l.google.com",
    "smtp_port": "25"
  }
}  

