{
    "handlers": {
        "sms": {
            "type": "pipe",
            "command": "handler-twiliosms.rb",
            "severites": ["critical", "unknown","CRITICAL"]
        }
    },
"twiliosms":{
    "token":"b0662d2113e56fe6c769450d631bfd5c",
    "number":"+12015975169",
    "sid":"AC95b88699f9770f290408dcfa927eac31",
    "recipients":{
      "+919010090500": {
        "sensu_roles":[ "all" ], // subscribers
        "sensu_checks":["server_healthcheck","apache_metric"], // checks
        "sensu_level": 2 // 1 for warnging, 2 for critical alerts
      },
      "+918099066096": {
        "sensu_roles":["node_server_health"],
        "sensu_checks":[ "server_healthcheck" ],
        "sensu_level": 2
      }
    }
  }
}  

